{
    "type": "object",
    "properties": {
        "uuid": {
            "type": "string",
            "required": true
        },
        "rulereserve_nodes": {
            "type": "string",
            "required": true
        },
        "version_standard_url": {
            "type": "string",
            "format": "uri",
            "required": true
        },
        "xalgo_schema_version": {
            "type": "string",
            "required": true
        },
        "metadata": {
            "type": "object",
            "properties": {
                "rule": {
                    "type": "object",
                    "properties": {
                        "version": {
                            "type": "string",
                            "required": true
                        },
                        "pattern": {
                            "type": "string",
                            "required": true
                        },
                        "pattern_version": {
                            "type": "string",
                            "required": true
                        },
                        "criticality": {
                            "type": "string",
                            "required": true
                        },
                        "group": {
                            "type": "string",
                            "required": true
                        },
                        "description": {
                            "type": "string",
                            "required": true
                        },
                        "url": {
                            "type": "string",
                            "format": "uri",
                            "required": true
                        },
                        "title": {
                            "type": "string",
                            "required": true
                        },
                        "rulemaker_entity": {
                            "type": "array",
                            "items": {
                                "type": "object",
                                "properties": {
                                    "entity_id": {
                                        "type": "string",
                                        "required": true
                                    },
                                    "entity_name": {
                                        "type": "string",
                                        "required": true
                                    },
                                    "entity_url": {
                                        "type": "string",
                                        "format": "uri",
                                        "required": true
                                    }
                                },
                                "required": true
                            },
                            "required": true
                        },
                        "rulemaker_manager": {
                            "type": "array",
                            "items": {
                                "type": "object",
                                "properties": {
                                    "manager_id": {
                                        "type": "string",
                                        "required": true
                                    },
                                    "manager_name": {
                                        "type": "string",
                                        "required": true
                                    },
                                    "manager_contact": {
                                        "type": "string",
                                        "format": "email",
                                        "required": true
                                    },
                                    "manager_profile": {
                                        "type": "string",
                                        "required": true
                                    }
                                },
                                "required": true
                            },
                            "required": true
                        },
                        "rulemaker_author": {
                            "type": "array",
                            "items": {
                                "type": "object",
                                "properties": {
                                    "author_id": {
                                        "type": "string",
                                        "required": true
                                    },
                                    "author_name": {
                                        "type": "string",
                                        "required": true
                                    },
                                    "author_contact": {
                                        "type": "string",
                                        "format": "email",
                                        "required": true
                                    },
                                    "author_profile": {
                                        "type": "string",
                                        "required": true
                                    }
                                },
                                "required": true
                            },
                            "required": true
                        },
                        "rulemaker_maintainer": {
                            "type": "array",
                            "items": {
                                "type": "object",
                                "properties": {
                                    "rulemaker_maintainer_id": {
                                        "type": "string",
                                        "required": true
                                    },
                                    "rulemaker_maintainer_name": {
                                        "type": "string",
                                        "required": true
                                    },
                                    "rulemaker_maintainer_contact": {
                                        "type": "string",
                                        "format": "email",
                                        "required": true
                                    },
                                    "rulemaker_maintainer_profile": {
                                        "type": "string",
                                        "required": true
                                    }
                                },
                                "required": true
                            },
                            "required": true
                        }
                    },
                    "required": true
                }
            },
            "required": true
        },
        "linked_rules_or_lookups": {
            "type": "array",
            "items": {
                "type": "object",
                "properties": {
                    "uuid": {
                        "type": "string",
                        "required": true
                    },
                    "column": {
                        "type": "array",
                        "required": true
                    },
                    "row": {
                        "type": "array",
                        "required": true
                    },
                    "value": {
                        "type": "array",
                        "required": true
                    }
                },
                "required": true
            },
            "required": true
        },
        "context_ineffect": {
            "type": "array",
            "items": {
                "type": "object",
                "properties": {
                    "datetime_standard_url": {
                        "type": "string",
                        "format": "uri",
                        "required": true
                    },
                    "datetime_zone": {
                        "type": "string",
                        "format": "uri",
                        "required": true
                    },
                    "datetime_range": {
                        "type": "object",
                        "properties": {
                            "start": {
                                "type": "string",
                                "format": "style",
                                "required": true
                            },
                            "end": {
                                "type": "string",
                                "required": true
                            }
                        },
                        "required": true
                    },
                    "jurisdiction_standard_url": {
                        "type": "string",
                        "format": "uri",
                        "required": true
                    },
                    "jurisdiction_country": {
                        "type": "string",
                        "required": true
                    },
                    "jurisdiction_subcountry": {
                        "type": "string",
                        "required": true
                    }
                },
                "required": true
            },
            "required": true
        },
        "category_applicable": {
            "type": "object",
            "properties": {
                "industry": {
                    "type": "array",
                    "items": {
                        "type": "object",
                        "properties": {
                            "industry_standard_url": {
                                "type": "string",
                                "format": "uri",
                                "required": true
                            },
                            "isic_industry_code": {
                                "type": "string",
                                "format": "utc-millisec",
                                "required": true
                            },
                            "isic_industry_name": {
                                "type": "string",
                                "required": true
                            }
                        },
                        "required": true
                    },
                    "required": true
                },
                "good_service_asset": {
                    "type": "array",
                    "items": {
                        "type": "object",
                        "properties": {
                            "good_service_asset_standard_url": {
                                "type": "string",
                                "format": "uri",
                                "required": true
                            },
                            "unspsc_code": {
                                "type": "string",
                                "format": "utc-millisec",
                                "required": true
                            },
                            "unspsc_name": {
                                "type": "string",
                                "required": true
                            }
                        },
                        "required": true
                    },
                    "required": true
                }
            },
            "required": true
        },
        "input_conditions": {
            "type": "array",
            "items": {
                "type": "object",
                "properties": {
                    "sentence": {
                        "type": "object",
                        "properties": {
                            "determiner": {
                                "type": "string",
                                "required": true
                            },
                            "subject_noun": {
                                "type": "string",
                                "required": true
                            },
                            "past_participle_verb": {
                                "type": "string",
                                "required": true
                            },
                            "auxiliary_verb": {
                                "type": "string",
                                "required": true
                            },
                            "object_descriptor": {
                                "type": "string",
                                "required": true
                            },
                            "object_nounorverb": {
                                "type": "string",
                                "required": true
                            }
                        },
                        "required": true
                    },
                    "logic_values": {
                        "type": "array",
                        "items": {
                            "type": "object",
                            "properties": {
                                "scenario": {
                                    "type": "string",
                                    "required": true
                                },
                                "value": {
                                    "type": "string",
                                    "format": "utc-millisec",
                                    "required": true
                                }
                            },
                            "required": true
                        },
                        "required": true
                    }
                },
                "required": true
            },
            "required": true
        },
        "output_assertions": {
            "type": "array",
            "items": {
                "type": "object",
                "properties": {
                    "sentence": {
                        "type": "object",
                        "properties": {
                            "determiner": {
                                "type": "string",
                                "required": true
                            },
                            "subject_noun": {
                                "type": "string",
                                "required": true
                            },
                            "past_participle_verb": {
                                "type": "string",
                                "required": true
                            },
                            "auxiliary_verb": {
                                "type": "string",
                                "required": true
                            },
                            "object_descriptor": {
                                "type": "string",
                                "required": true
                            },
                            "object_nounorverb": {
                                "type": "string",
                                "required": true
                            }
                        },
                        "required": true
                    },
                    "logic_values": {
                        "type": "array",
                        "items": {
                            "type": "object",
                            "properties": {
                                "scenario": {
                                    "type": "string",
                                    "required": true
                                },
                                "value": {
                                    "type": "string",
                                    "format": "utc-millisec",
                                    "required": true
                                }
                            },
                            "required": true
                        },
                        "required": true
                    }
                },
                "required": true
            },
            "required": true
        },
        "output_weight": {
            "type": "object",
            "properties": {
                "character": {
                    "type": "integer",
                    "required": true
                },
                "enforcement": {
                    "type": "integer",
                    "required": true
                },
                "consequences": {
                    "type": "integer",
                    "required": true
                }
            },
            "required": true
        },
        "output_characteristics": {
            "type": "object",
            "properties": {
                "rulemaker_ruletaker_thirdparty": {
                    "type": "string",
                    "required": true
                },
                "affirmative_negative_interrogative": {
                    "type": "string",
                    "required": true
                },
                "be_do_have": {
                    "type": "string",
                    "required": true
                },
                "declarative_imperative_empirical": {
                    "type": "string",
                    "required": true
                },
                "logical_practical_ethical": {
                    "type": "string",
                    "required": true
                }
            },
            "required": true
        }
    },
    "required": true
}